{
  "profiles": {
    "Client": {
      "hotReloadEnabled": true,
      "commandName": "Executable",
      "executablePath": "dotnet",
      "commandLineArgs": "Vintagestory.dll --tracelog --addModPath \"$(ProjectDir)/bin/$(Configuration)/Mods\" --dataPath $(VINTAGE_STORY_DATA_MODDING)",
      "workingDirectory": "$(VINTAGE_STORY_PRE)"
    },
    "Server": {
      "hotReloadEnabled": true,
      "commandName": "Executable",
      "executablePath": "dotnet",
      "commandLineArgs": "VintagestoryServer.dll --tracelog --addModPath \"$(ProjectDir)/bin/$(Configuration)/Mods\" --dataPath $(VINTAGE_STORY_SERVER_DATA_MODDING)",
      "workingDirectory": "$(VINTAGE_STORY_PRE)"
    }
  }
}